Project C
…
Project C

Rosie Armstrong

## # A tibble: 123 x 3
##    group behavior   tod
##    <int> <chr>    <int>
##  1     1 phone       12
##  2     2 talking     12
##  3     2 talking     12
##  4     1 neutral     12
##  5     3 neutral     12
##  6     3 neutral     12
##  7     3 phone       12
##  8     3 talking     12
##  9     3 talking     12
## 10     3 talking     12
## # ... with 113 more rows
…
